version="0.2"
tags={
	"Alternative History"
	"National Focuses"
}
name="Failurereich: Stalemate"
replace_path="common/national_focus"
replace_path="common/decisions"
replace_path="events"
picture="thumbnail.png"
supported_version="1.11.2"
path="C:/Users/Larby/Documents/Paradox Interactive/Hearts of Iron IV/mod/FS"
remote_file_id="2077121121"